{
  "name": "VCluster",
  "object_type_version": 0,
  "schema_version": "v2",
  "fields": [
    {
      "name": "id",
      "type": "string",
      "primary_key": true,
      "id_policy": "generated",
      "searchable": true,
      "sortable": false
    },
    {
      "name": "name",
      "type": "string",
      "searchable": true,
      "sortable": true
    },
    {
      "name": "version",
      "type": "version",
      "searchable": false,
      "sortable": false
    }
  ]
}
